[gd_scene load_steps=7 format=2]

[ext_resource path="res://Assets/factory2.png" type="Texture" id=1]

[sub_resource type="Shader" id=7]
code = "shader_type canvas_item;
void fragment(){
	COLOR = vec4(132./255., 219./255., 219./255., 1);
}
"

[sub_resource type="ShaderMaterial" id=8]
shader = SubResource( 7 )

[sub_resource type="ConvexPolygonShape2D" id=3]
points = PoolVector2Array( 64, 64, 0, 64, 0, 0, 64, 0 )

[sub_resource type="NavigationPolygon" id=6]
vertices = PoolVector2Array( 0, 0, 64, 0, 64, 64, 0, 64 )
polygons = [ PoolIntArray( 0, 1, 2, 3 ) ]

[sub_resource type="TileSet" id=5]
0/name = "factory2.png 0"
0/texture = ExtResource( 1 )
0/tex_offset = Vector2( 0, 0 )
0/material = SubResource( 8 )
0/modulate = Color( 1, 1, 1, 1 )
0/region = Rect2( 0, 0, 64, 64 )
0/tile_mode = 0
0/occluder_offset = Vector2( 0, 0 )
0/navigation_offset = Vector2( 0, 0 )
0/shape_offset = Vector2( 0, 0 )
0/shape_transform = Transform2D( 1, 0, 0, 1, 0, 0 )
0/shape_one_way = false
0/shape_one_way_margin = 0.0
0/shapes = [  ]
0/z_index = 0
1/name = "factory2.png 1"
1/texture = ExtResource( 1 )
1/tex_offset = Vector2( 0, 0 )
1/modulate = Color( 1, 1, 1, 1 )
1/region = Rect2( 64, 0, 64, 64 )
1/tile_mode = 0
1/occluder_offset = Vector2( 0, 0 )
1/navigation_offset = Vector2( 0, 0 )
1/shape_offset = Vector2( 0, 0 )
1/shape_transform = Transform2D( 1, 0, 0, 1, 0, 0 )
1/shape = SubResource( 3 )
1/shape_one_way = false
1/shape_one_way_margin = 1.0
1/shapes = [ {
"autotile_coord": Vector2( 0, 0 ),
"one_way": false,
"one_way_margin": 1.0,
"shape": SubResource( 3 ),
"shape_transform": Transform2D( 1, 0, 0, 1, 0, 0 )
} ]
1/z_index = 0
2/name = "factory2.png 2"
2/texture = ExtResource( 1 )
2/tex_offset = Vector2( 0, 0 )
2/modulate = Color( 1, 1, 1, 1 )
2/region = Rect2( 128, 0, 64, 64 )
2/tile_mode = 0
2/occluder_offset = Vector2( 0, 0 )
2/navigation_offset = Vector2( 0, 0 )
2/navigation = SubResource( 6 )
2/shape_offset = Vector2( 0, 0 )
2/shape_transform = Transform2D( 1, 0, 0, 1, 0, 0 )
2/shape_one_way = false
2/shape_one_way_margin = 0.0
2/shapes = [  ]
2/z_index = 0

[node name="TileMap" type="TileMap" groups=[
"wall",
]]
tile_set = SubResource( 5 )
cell_tile_origin = 1
collision_layer = 2
format = 1
